// Jest Snapshot v1, https://goo.gl/fbAQLP

exports[`preparing data for csv export transformDataForLabInventoryCSV transforms data into rows 1`] = `
Array [
  Object {
    "Composite": "2",
    "Label (Bag ID)": "Sample 1",
    "Max Depth": 30,
    "Min Depth": 0,
    "Sample ID": "sample1",
    "Sampling Collection ID": "coll0",
    "Sampling ID": "sampling1",
    "Stratum": 1,
  },
  Object {
    "Composite": "4",
    "Label (Bag ID)": "Sample 2",
    "Max Depth": 33,
    "Min Depth": 22,
    "Sample ID": "sample2",
    "Sampling Collection ID": "coll0",
    "Sampling ID": "sampling2",
    "Stratum": 3,
  },
  Object {
    "Composite": "4",
    "Label (Bag ID)": "Sample 3",
    "Max Depth": 55,
    "Min Depth": 44,
    "Sample ID": "sample3",
    "Sampling Collection ID": "coll0",
    "Sampling ID": "sampling2",
    "Stratum": 3,
  },
]
`;

exports[`preparing data for csv export transformDataForRawSamplingCollectionCSV transforms data into rows 1`] = `
Array [
  Object {
    "fieldName": "mock field name",
    "locationComposite": "2",
    "locationLId": "loc1",
    "locationLabel": "",
    "locationLatitude": 1,
    "locationLongitude": 0,
    "locationStratum": 1,
    "sampleId": "sample1",
    "sampleName": "Sample 1",
    "sampleResultOf": "sampling1",
    "sampleResults": Array [
      "mock result id",
    ],
    "sampleSampleOf": "mock samplingCollection id",
    "sampleSoDepthMax": 30,
    "sampleSoDepthMin": 0,
    "sampleSoDepthUnit": "CM",
    "samplingCollectionComment": "mock comment",
    "samplingCollectionCreator": "mock creator",
    "samplingCollectionDateCreated": "mock dateCreated",
    "samplingCollectionDateModified": "mock dateModified",
    "samplingCollectionFieldId": "mock feature of interest",
    "samplingCollectionId": "coll0",
    "samplingCollectionLocationCollectionId": "mock location collection id",
    "samplingCollectionMeta": Object {
      "groupId": "2",
      "submissionId": "1",
      "submittedAt": "1970-01-01T00:00:00.000Z",
    },
    "samplingCollectionName": "mock sampling collection name",
    "samplingCollectionParticipants": Array [
      "mock participant",
    ],
    "samplingCollectionSampleDepths": Array [
      Object {
        "maxValue": Object {
          "unit": "CM",
          "value": 15,
        },
        "minValue": Object {
          "unit": "CM",
          "value": 0,
        },
      },
      Object {
        "maxValue": Object {
          "unit": "CM",
          "value": 30,
        },
        "minValue": Object {
          "unit": "CM",
          "value": 15,
        },
      },
    ],
    "samplingCollectionSamplingIds": Array [
      "sampling1",
      "sampling2",
    ],
    "samplingCollectionSoDepth": Object {
      "maxValue": Object {
        "unit": "CM",
        "value": 30,
      },
      "minValue": Object {
        "unit": "CM",
        "value": 0,
      },
    },
    "samplingComment": "mock comment",
    "samplingGeoAccuracy": undefined,
    "samplingId": "sampling1",
    "samplingLatitude": 1,
    "samplingLocationId": "loc1",
    "samplingLongitude": 0,
    "samplingMemberOf": "mock sampling collection id",
    "samplingName": "mock sampling name",
    "samplingProcedures": Array [
      "mock procedure id",
    ],
    "samplingResultTime": "mock result time",
    "samplingResults": Array [
      "mock sample id",
    ],
    "samplingSoDepthMax": 30,
    "samplingSoDepthMin": 0,
    "samplingSoDepthUnit": "CM",
  },
  Object {
    "fieldName": "mock field name",
    "locationComposite": "4",
    "locationLId": "loc2",
    "locationLabel": "",
    "locationLatitude": 1,
    "locationLongitude": 0,
    "locationStratum": 3,
    "sampleId": "sample2",
    "sampleName": "Sample 2",
    "sampleResultOf": "sampling2",
    "sampleResults": Array [
      "mock result id",
    ],
    "sampleSampleOf": "mock samplingCollection id",
    "sampleSoDepthMax": 33,
    "sampleSoDepthMin": 22,
    "sampleSoDepthUnit": "CM",
    "samplingCollectionComment": "mock comment",
    "samplingCollectionCreator": "mock creator",
    "samplingCollectionDateCreated": "mock dateCreated",
    "samplingCollectionDateModified": "mock dateModified",
    "samplingCollectionFieldId": "mock feature of interest",
    "samplingCollectionId": "coll0",
    "samplingCollectionLocationCollectionId": "mock location collection id",
    "samplingCollectionMeta": Object {
      "groupId": "2",
      "submissionId": "1",
      "submittedAt": "1970-01-01T00:00:00.000Z",
    },
    "samplingCollectionName": "mock sampling collection name",
    "samplingCollectionParticipants": Array [
      "mock participant",
    ],
    "samplingCollectionSampleDepths": Array [
      Object {
        "maxValue": Object {
          "unit": "CM",
          "value": 15,
        },
        "minValue": Object {
          "unit": "CM",
          "value": 0,
        },
      },
      Object {
        "maxValue": Object {
          "unit": "CM",
          "value": 30,
        },
        "minValue": Object {
          "unit": "CM",
          "value": 15,
        },
      },
    ],
    "samplingCollectionSamplingIds": Array [
      "sampling1",
      "sampling2",
    ],
    "samplingCollectionSoDepth": Object {
      "maxValue": Object {
        "unit": "CM",
        "value": 30,
      },
      "minValue": Object {
        "unit": "CM",
        "value": 0,
      },
    },
    "samplingComment": "mock comment",
    "samplingGeoAccuracy": undefined,
    "samplingId": "sampling2",
    "samplingLatitude": 1,
    "samplingLocationId": "loc2",
    "samplingLongitude": 0,
    "samplingMemberOf": "mock sampling collection id",
    "samplingName": "mock sampling name",
    "samplingProcedures": Array [
      "mock procedure id",
    ],
    "samplingResultTime": "mock result time",
    "samplingResults": Array [
      "mock sample id",
    ],
    "samplingSoDepthMax": 30,
    "samplingSoDepthMin": 0,
    "samplingSoDepthUnit": "CM",
  },
  Object {
    "fieldName": "mock field name",
    "locationComposite": "4",
    "locationLId": "loc2",
    "locationLabel": "",
    "locationLatitude": 1,
    "locationLongitude": 0,
    "locationStratum": 3,
    "sampleId": "sample3",
    "sampleName": "Sample 3",
    "sampleResultOf": "sampling2",
    "sampleResults": Array [
      "mock result id",
    ],
    "sampleSampleOf": "mock samplingCollection id",
    "sampleSoDepthMax": 55,
    "sampleSoDepthMin": 44,
    "sampleSoDepthUnit": "CM",
    "samplingCollectionComment": "mock comment",
    "samplingCollectionCreator": "mock creator",
    "samplingCollectionDateCreated": "mock dateCreated",
    "samplingCollectionDateModified": "mock dateModified",
    "samplingCollectionFieldId": "mock feature of interest",
    "samplingCollectionId": "coll0",
    "samplingCollectionLocationCollectionId": "mock location collection id",
    "samplingCollectionMeta": Object {
      "groupId": "2",
      "submissionId": "1",
      "submittedAt": "1970-01-01T00:00:00.000Z",
    },
    "samplingCollectionName": "mock sampling collection name",
    "samplingCollectionParticipants": Array [
      "mock participant",
    ],
    "samplingCollectionSampleDepths": Array [
      Object {
        "maxValue": Object {
          "unit": "CM",
          "value": 15,
        },
        "minValue": Object {
          "unit": "CM",
          "value": 0,
        },
      },
      Object {
        "maxValue": Object {
          "unit": "CM",
          "value": 30,
        },
        "minValue": Object {
          "unit": "CM",
          "value": 15,
        },
      },
    ],
    "samplingCollectionSamplingIds": Array [
      "sampling1",
      "sampling2",
    ],
    "samplingCollectionSoDepth": Object {
      "maxValue": Object {
        "unit": "CM",
        "value": 30,
      },
      "minValue": Object {
        "unit": "CM",
        "value": 0,
      },
    },
    "samplingComment": "mock comment",
    "samplingGeoAccuracy": undefined,
    "samplingId": "sampling2",
    "samplingLatitude": 1,
    "samplingLocationId": "loc2",
    "samplingLongitude": 0,
    "samplingMemberOf": "mock sampling collection id",
    "samplingName": "mock sampling name",
    "samplingProcedures": Array [
      "mock procedure id",
    ],
    "samplingResultTime": "mock result time",
    "samplingResults": Array [
      "mock sample id",
    ],
    "samplingSoDepthMax": 30,
    "samplingSoDepthMin": 0,
    "samplingSoDepthUnit": "CM",
  },
]
`;
